[
  "automatic-table-of-contents",
  "obsidian-dictionary-plugin",
  "cm-editor-syntax-highlight-obsidian",
  "obsidian-excalidraw-plugin",
  "file-tree-alternative",
  "obsidian-latex-suite",
  "obsidian-linter",
  "mermaid-tools",
  "obsidian-plugin-prettier",
  "3d-graph",
  "graph-analysis",
  "obsidian-chartsview-plugin",
  "obsidian-git"
]